{
	"info": {
		"_postman_id": "2540be7f-b148-4f4c-81bc-bf92b6ea44eb",
		"name": "s36",
		"schema": "https://schema.getpostman.com/json/collection/v2.1.0/collection.json"
	},
	"item": [
		{
			"name": "GET all tasks",
			"request": {
				"method": "GET",
				"header": []
			},
			"response": []
		},
		{
			"name": "CREATE task",
			"request": {
				"method": "GET",
				"header": [],
				"url": {
					"raw": "http://localhost:4000/tasks",
					"protocol": "http",
					"host": [
						"localhost"
					],
					"port": "4000",
					"path": [
						"tasks"
					]
				}
			},
			"response": []
		},
		{
			"name": "DELETE task",
			"request": {
				"method": "DELETE",
				"header": [],
				"url": {
					"raw": "http://localhost:4000/task/64789d801af2bd92f1e8c69e",
					"protocol": "http",
					"host": [
						"localhost"
					],
					"port": "4000",
					"path": [
						"task",
						"64789d801af2bd92f1e8c69e"
					]
				}
			},
			"response": []
		},
		{
			"name": "UPDATE task",
			"request": {
				"method": "GET",
				"header": []
			},
			"response": []
		},
		{
			"name": "getting a specific task",
			"request": {
				"method": "GET",
				"header": []
			},
			"response": []
		},
		{
			"name": "changing the status of task",
			"request": {
				"method": "GET",
				"header": []
			},
			"response": []
		}
	]
}