{
	"info": {
		"_postman_id": "04461be2-2a85-447e-b796-b02f4fb2ac9e",
		"name": "s34",
		"schema": "https://schema.getpostman.com/json/collection/v2.1.0/collection.json"
	},
	"item": [
		{
			"name": "activity",
			"item": [
				{
					"name": "home route",
					"request": {
						"method": "GET",
						"header": []
					},
					"response": []
				},
				{
					"name": "get users",
					"request": {
						"method": "GET",
						"header": []
					},
					"response": []
				},
				{
					"name": "delete user",
					"request": {
						"method": "GET",
						"header": []
					},
					"response": []
				}
			]
		}
	]
}